<?xml version="1.0" encoding="utf-8"?>
<!-- This URDF was automatically created by SolidWorks to URDF Exporter! Originally created by Stephen Brawner (brawner@gmail.com) 
     Commit Version: 1.5.1-0-g916b5db  Build Version: 1.5.7152.31018
     For more information, please see http://wiki.ros.org/sw_urdf_exporter -->
<robot
  name="SugarShaker.SLDPRT">
  <link
    name="SugarShaker">
    <inertial>
      <origin
        xyz="6.6538E-34 1.16669386584461E-17 0.085424"
        rpy="0 0 0" />
      <mass
        value="0.074863" />
      <inertia
        ixx="0.00030537"
        ixy="6.908E-37"
        ixz="1.9333E-36"
        iyy="0.00030537"
        iyz="7.73703002472855E-21"
        izz="5.489E-05" />
    </inertial>
    <visual>
      <origin
        xyz="0 0 0"
        rpy="1.5707963267949 0 0" />
      <geometry>
        <mesh
          filename="package://BrewBotSim/models/SugarShaker/meshes/SugarShaker.STL" />
      </geometry>
      <material
        name="">
        <color
          rgba="0.79216 0.81961 0.93333 1" />
        <texture
          filename="package://BrewBotSim/models/SugarShaker/textures/" />
      </material>
    </visual>
    <collision>
      <origin
        xyz="0 0 0"
        rpy="1.5707963267949 0 0" />
      <geometry>
        <mesh
          filename="package://BrewBotSim/models/SugarShaker/meshes/SugarShaker.STL" />
      </geometry>
    </collision>
  </link>
  <gazebo reference = "SugarShaker">
    <material>Gazebo/Yellow</material>
  </gazebo>
</robot>
